Clase 10
…
---
# Tidyverse
## filter()

Caso: Quiero quedarme únicamente con aquella población que tuvieron 'asistencia respiratoria mecánica'.
Según la metadata, la variable que necesito para filtrar se llama *asistencia_respiratoria_mecanica*, cuyas categorías son **SI/NO**:

```r
base_covid %>%
  select(id_evento_caso,asistencia_respiratoria_mecanica) %>%
  filter(asistencia_respiratoria_mecanica == "SI")# * Doble signo igual junto ==
```

```
## # A tibble: 364 × 2
##    id_evento_caso asistencia_respiratoria_mecanica
##             <dbl> <chr>                           
##  1         773376 SI                              
##  2         816251 SI                              
##  3         836895 SI                              
##  4         852977 SI                              
##  5         870899 SI                              
##  6         901291 SI                              
##  7         904720 SI                              
##  8         937062 SI                              
##  9         998935 SI                              
## 10        1125035 SI                              
## # … with 354 more rows
```
…
```r
#ejemplo 2: quiero seleccionar los que tengan 37
base_covid_practica_seleccion <-base_covid %>% 
  filter(edad == 37)

base_covid_practica_seleccion
```

```
## # A tibble: 3,990 × 25
##    id_evento_caso sexo   edad edad_…¹ resid…² resid…³ resid…⁴ carga…⁵ fecha_in…⁶
##             <dbl> <chr> <dbl> <chr>   <chr>   <chr>   <chr>   <chr>   <date>    
##  1         785260 F        37 Años    Argent… CABA    SIN ES… CABA    2020-03-31
##  2         806265 M        37 Años    Argent… CABA    SIN ES… CABA    NA        
##  3         814856 M        37 Años    Argent… CABA    SIN ES… CABA    2020-04-09
##  4         864464 M        37 Años    Argent… CABA    SIN ES… Buenos… 2020-04-27
##  5         944672 M        37 Años    Argent… CABA    SIN ES… CABA    NA        
##  6         949359 F        37 Años    Argent… CABA    SIN ES… CABA    2020-05-16
##  7         980060 M        37 Años    Argent… CABA    SIN ES… CABA    2020-05-26
##  8        1005662 F        37 Años    Argent… CABA    SIN ES… CABA    2020-05-30
##  9        1027332 F        37 Años    Argent… CABA    SIN ES… CABA    2020-05-29
## 10        1051134 M        37 Años    SIN ES… CABA    SIN ES… CABA    NA        
## # … with 3,980 more rows, 16 more variables: fecha_apertura <date>,
## #   sepi_apertura <dbl>, fecha_internacion <date>, cuidado_intensivo <chr>,
## #   fecha_cui_intensivo <lgl>, fallecido <chr>, fecha_fallecimiento <date>,
## #   asistencia_respiratoria_mecanica <chr>, carga_provincia_id <chr>,
## #   origen_financiamiento <chr>, clasificacion <chr>,
## #   clasificacion_resumen <chr>, residencia_provincia_id <chr>,
## #   fecha_diagnostico <date>, residencia_departamento_id <chr>, …
```
…
